{
  "track": "COTA",
  "sections": [
    {"name": "T1", "start": 0.100, "end": 0.132},
    {"name": "T2", "start": 0.150, "end": 0.184},
    {"name": "T3", "start": 0.200, "end": 0.220},
    {"name": "T4", "start": 0.220, "end": 0.236},
    {"name": "T5", "start": 0.236, "end": 0.255},
    {"name": "T6", "start": 0.255, "end": 0.298},
    {"name": "T7", "start": 0.305, "end": 0.325},
    {"name": "T8", "start": 0.328, "end": 0.352},
    {"name": "T9", "start": 0.352, "end": 0.370},
    {"name": "T10", "start": 0.385, "end": 0.405},
    {"name": "T11", "start": 0.445, "end": 0.478},
    {"name": "T12", "start": 0.673, "end": 0.700},
    {"name": "T13", "start": 0.718, "end": 0.739},
    {"name": "T14", "start": 0.739, "end": 0.760},
    {"name": "T15", "start": 0.760, "end": 0.790},
    {"name": "T16", "start": 0.810, "end": 0.825},
    {"name": "T17", "start": 0.825, "end": 0.840},
    {"name": "T18", "start": 0.840, "end": 0.890},
    {"name": "T19", "start": 0.900, "end": 0.925},
    {"name": "T20", "start": 0.950, "end": 0.980}
  ]
}
