{
  "track": "nurburgring",
  "sections": [
    {
      "name": "Haug-Haken",
      "start": 0.090,
      "end": 0.135
    },
    {
      "name": "Mercedes Arena",
      "start": 0.100,
      "end": 0.242
    },
    {
      "name": "Valvoline-Kurve",
      "start": 0.290,
      "end": 0.335
    },
    {
      "name": "Ford-Kurve",
      "start": 0.335,
      "end": 0.370
    },
    {
      "name": "Dunlop-Kehre",
      "start": 0.440,
      "end": 0.498
    },
    {
      "name": "Michael-Schumacher-S",
      "start": 0.525,
      "end": 0.602
    },
    {
      "name": "Michelin-Kurve",
      "start": 0.630,
      "end": 0.670
    },
    {
      "name": "Warsteiner-Kurve",
      "start": 0.680,
      "end": 0.725
    },
    {
      "name": "ADVAN-Bogen",
      "start": 0.775,
      "end": 0.810
    },
    {
      "name": "NGK-Schikane",
      "start": 0.850,
      "end": 0.908
    },
    {
      "name": "Coca-Cola Kurve",
      "start": 0.925,
      "end": 0.965
    }
  ]
}
