{
  "track": "Paul Ricard",
  "sections": [
    {"name": "\"S\" de la Verrerie", "start": 0.085, "end": 0.145},
    {"name": "Virage de L'Hôtel", "start": 0.217, "end": 0.235},
    {"name": "Virage du Camp", "start": 0.252, "end": 0.270},
    {"name": "Virage de la Sainte-Beaume", "start": 0.252, "end": 0.312},
    {"name": "Ligne Droit du Mistral", "start": 0.380, "end": 0.620},
    {"name": "Courbe de Signes", "start": 0.640, "end": 0.690},
    {"name": "Double Droite du Beausset", "start": 0.712, "end": 0.780},
    {"name": "Virage de Bendor", "start": 0.800, "end": 0.840},
    {"name": "Courbe du Garlaban", "start": 0.840, "end": 0.890},
    {"name": "Virage de la Tour", "start": 0.890, "end": 0.930},
    {"name": "Virage du Pont", "start": 0.930, "end": 0.955}
  ]
}
